
[
  {
    "age": 32,
    "id": "Ashley_Corey",
    "imageUrl": "img/client_imgs/Ashley_Corey.jpg",
    "name": "Ashley Corey",
    "snippet": "Pint Sized Powerlifter and Assistant Coach"
  },
  {
    "age": 32,
    "id": "Audrey_Therrien",
    "imageUrl": "img/client_imgs/Audrey_Therrien.jpg",
    "name": "Audrey Therrien",
    "snippet": ""
  },
  {
    "age":32 ,
    "id": "Ben_MacDonald",
    "imageUrl": "img/client_imgs/Ben_MacDonald.jpg",
    "name": "Ben MacDonald",
    "snippet": ""
  },
  {
    "age": 32,
    "id": "Diane_Conger",
    "imageUrl": "img/client_imgs/Diane_Conger.jpg",
    "name": "Diane Conger",
    "snippet": ""
  },
  {
    "age": 32,
    "id": "James_Lockhart",
    "imageUrl": "img/client_imgs/James_Lockhart.jpg",
    "name": "James Lockhart",
    "snippet": ""
  },
  {
    "age": 32,
    "id": "Jenn_Russell",
    "imageUrl": "img/client_imgs/Jenn_Russell.jpg",
    "name": "Jenn Russell",
    "snippet": ""
  },
  {
    "age": 32,
    "id": "Jessica_Warren",
    "imageUrl": "img/client_imgs/Jessica_Warren.jpg",
    "name": "Jessica Warren",
    "snippet": ""
  },
  {
    "age": 32,
    "id": "Julie_Lecea",
    "imageUrl": "img/client_imgs/Julie_Lecea.jpg",
    "name": "Julie Lecea",
    "snippet": ""
  },
  {
    "age": 32,
    "id": "Kaitlin_Armour",
    "imageUrl": "img/client_imgs/Kaitlin_Armour.jpg",
    "name": "Kaitlin Armour",
    "snippet": ""
  },
  {
    "age": 32,
    "id": "Kelly_Gulutz",
    "imageUrl": "img/client_imgs/Kelly_Gulutz.jpg",
    "name": "Kelly Gulutz",
    "snippet": ""
  },
  {
    "age": 32,
    "id": "Kerry_Richardson",
    "imageUrl": "img/client_imgs/Kerry_Richardson.jpg",
    "name": "Kerry Richardson",
    "snippet": ""
  },
  {
    "age": 32,
    "id": "Morgan_Armour",
    "imageUrl": "img/client_imgs/Morgan_Armour.jpg",
    "name": "Morgan Armour",
    "snippet": ""
  },
  {
    "age": 32,
    "id": "Sara_Murray",
    "imageUrl": "img/client_imgs/Sara_Murray.jpg",
    "name": "Sara Murray",
    "snippet": ""
  },
  {
    "age": 32,
    "id": "Tiffany_Purdy",
    "imageUrl": "img/client_imgs/Tiffany_Purdy.jpg",
    "name": "Tiffany Purdy",
    "snippet": ""
  }
]